{
  "game": {
    "name": "UNKNOW GAME",
    "app_id": "UNKNOW",
    "c_id": "0"
  },
  "appConfigMaps": [
    {
      "app_id": "UNKNOW",
      "config_id": "4e2798"
    }
  ],
  "configs": [
    {
      "app_id": "UNKNOW",
      "config_id": "4e2798",
      "config_name": "Default",
      "config_remarks": "",
      "services": []
    }
  ]
}
